{
    "name": "Elisha Hastings",
    "url": "https://blog.muckypupcreations.com",
    "title": "Eli's Blog",
    "description": "Welcome to Eli's blog",
    "github": "https://github.com/tshakah",
    "gitlab": "https://gitlab.com/tshakah",
    "twitter": "",
    "linkedin": "https://www.linkedin.com/in/dan-hastings-8548296a/"
}
